…
```r
filter(mpg, cyl == 8)
```

```
## # A tibble: 70 × 11
##    manufacturer              model displ  year   cyl      trans   drv
##           <chr>              <chr> <dbl> <int> <int>      <chr> <chr>
## 1          audi         a6 quattro   4.2  2008     8   auto(s6)     4
## 2     chevrolet c1500 suburban 2wd   5.3  2008     8   auto(l4)     r
## 3     chevrolet c1500 suburban 2wd   5.3  2008     8   auto(l4)     r
## 4     chevrolet c1500 suburban 2wd   5.3  2008     8   auto(l4)     r
## 5     chevrolet c1500 suburban 2wd   5.7  1999     8   auto(l4)     r
## 6     chevrolet c1500 suburban 2wd   6.0  2008     8   auto(l4)     r
## 7     chevrolet           corvette   5.7  1999     8 manual(m6)     r
## 8     chevrolet           corvette   5.7  1999     8   auto(l4)     r
## 9     chevrolet           corvette   6.2  2008     8 manual(m6)     r
## 10    chevrolet           corvette   6.2  2008     8   auto(s6)     r
## # ... with 60 more rows, and 4 more variables: cty <int>, hwy <int>,
## #   fl <chr>, class <chr>
```
…
