…
The shortest regular flights were between Newark and Philly.

##5.4.1 Exercises

**1. Brainstorm as many ways as possible to select dep_time, dep_delay, arr_time, and arr_delay from flights.**


```r
select(data, dep_time, dep_delay, arr_time, arr_delay)
```

```
## # A tibble: 336,776 × 4
##    dep_time dep_delay arr_time arr_delay
##       <int>     <dbl>    <int>     <dbl>
## 1       517         2      830        11
## 2       533         4      850        20
## 3       542         2      923        33
## 4       544        -1     1004       -18
## 5       554        -6      812       -25
## 6       554        -4      740        12
## 7       555        -5      913        19
## 8       557        -3      709       -14
## 9       557        -3      838        -8
## 10      558        -2      753         8
## # ... with 336,766 more rows
```

```r
select(data, dep_time:arr_delay, -(contains("sched")))
```

```
## # A tibble: 336,776 × 4
##    dep_time dep_delay arr_time arr_delay
##       <int>     <dbl>    <int>     <dbl>
## 1       517         2      830        11
## 2       533         4      850        20
## 3       542         2      923        33
## 4       544        -1     1004       -18
## 5       554        -6      812       -25
## 6       554        -4      740        12
## 7       555        -5      913        19
## 8       557        -3      709       -14
## 9       557        -3      838        -8
## 10      558        -2      753         8
## # ... with 336,766 more rows
```

```r
select(data, contains("arr_"), contains("dep_"), -(contains("sched")))
```

```
## # A tibble: 336,776 × 4
##    arr_time arr_delay dep_time dep_delay
##       <int>     <dbl>    <int>     <dbl>
## 1       830        11      517         2
## 2       850        20      533         4
## 3       923        33      542         2
## 4      1004       -18      544        -1
## 5       812       -25      554        -6
## 6       740        12      554        -4
## 7       913        19      555        -5
## 8       709       -14      557        -3
## 9       838        -8      557        -3
## 10      753         8      558        -2
## # ... with 336,766 more rows
```

```r
select(data, ends_with("time"), ends_with("delay"),-(contains("sched")), -(contains("air")))
```

```
## # A tibble: 336,776 × 4
##    dep_time arr_time dep_delay arr_delay
##       <int>    <int>     <dbl>     <dbl>
## 1       517      830         2        11
## 2       533      850         4        20
## 3       542      923         2        33
## 4       544     1004        -1       -18
## 5       554      812        -6       -25
## 6       554      740        -4        12
## 7       555      913        -5        19
## 8       557      709        -3       -14
## 9       557      838        -3        -8
## 10      558      753        -2         8
## # ... with 336,766 more rows
```

**2. What happens if you include the name of a variable multiple times in a select() call?**


```r
select(data, dep_time, dep_time, dep_time)
```

```
## # A tibble: 336,776 × 1
##    dep_time
##       <int>
## 1       517
## 2       533
## 3       542
## 4       544
## 5       554
## 6       554
## 7       555
## 8       557
## 9       557
## 10      558
## # ... with 336,766 more rows
```

It seems to ignore it.

**3. What does the one_of() function do? Why might it be helpful in conjunction with this vector?**


```r
vars <- c("year", "month", "day", "dep_delay", "arr_delay")
select(data, one_of(vars))
```

```
## # A tibble: 336,776 × 5
##     year month   day dep_delay arr_delay
##    <int> <int> <int>     <dbl>     <dbl>
## 1   2013     1     1         2        11
## 2   2013     1     1         4        20
## 3   2013     1     1         2        33
## 4   2013     1     1        -1       -18
## 5   2013     1     1        -6       -25
## 6   2013     1     1        -4        12
## 7   2013     1     1        -5        19
## 8   2013     1     1        -3       -14
## 9   2013     1     1        -3        -8
## 10  2013     1     1        -2         8
## # ... with 336,766 more rows
```

It looks for column names that contain any of the strings in the vector.

**4. Does the result of running the following code surprise you? How do the select helpers deal with case by default? How can you change that default?**


```r
select(data, contains("TIME"))
```

```
## # A tibble: 336,776 × 6
##    dep_time sched_dep_time arr_time sched_arr_time air_time
##       <int>          <int>    <int>          <int>    <dbl>
## 1       517            515      830            819      227
## 2       533            529      850            830      227
## 3       542            540      923            850      160
## 4       544            545     1004           1022      183
## 5       554            600      812            837      116
## 6       554            558      740            728      150
## 7       555            600      913            854      158
## 8       557            600      709            723       53
## 9       557            600      838            846      140
## 10      558            600      753            745      138
## # ... with 336,766 more rows, and 1 more variables: time_hour <dttm>
```
…
