…
**2. Come up with another approach that will give you the same output as not_cancelled %>% count(dest) and not_cancelled %>% count(tailnum, wt = distance) (without using count()).**


```r
not_cancelled %>% 
  group_by(dest) %>%
  summarise(flights = n())
```

```
## # A tibble: 104 × 2
##     dest flights
##    <chr>   <int>
## 1    ABQ     254
## 2    ACK     264
## 3    ALB     418
## 4    ANC       8
## 5    ATL   16837
## 6    AUS    2411
## 7    AVL     261
## 8    BDL     412
## 9    BGR     358
## 10   BHM     269
## # ... with 94 more rows
```

```r
not_cancelled %>% 
  group_by(tailnum) %>%
  summarise(total = sum(distance))
```

```
## # A tibble: 4,037 × 2
##    tailnum  total
##      <chr>  <dbl>
## 1   D942DN   3418
## 2   N0EGMQ 239143
## 3   N10156 109664
## 4   N102UW  25722
## 5   N103US  24619
## 6   N104UW  24616
## 7   N10575 139903
## 8   N105UW  23618
## 9   N107US  21677
## 10  N108UW  32070
## # ... with 4,027 more rows
```
…
**1. Refer back to the lists of useful mutate and filtering functions. Describe how each operation changes when you combine it with grouping.**

**2. Which plane (tailnum) has the worst on-time record?**


```r
flights %>%
  group_by(tailnum) %>%
  summarise(mean_delay = mean(arr_delay, na.rm = TRUE)) %>%
  arrange(desc(mean_delay))
```

```
## # A tibble: 4,044 × 2
##    tailnum mean_delay
##      <chr>      <dbl>
## 1   N844MH   320.0000
## 2   N911DA   294.0000
## 3   N922EV   276.0000
## 4   N587NW   264.0000
## 5   N851NW   219.0000
## 6   N928DN   201.0000
## 7   N7715E   188.0000
## 8   N654UA   185.0000
## 9   N665MQ   174.6667
## 10  N427SW   157.0000
## # ... with 4,034 more rows
```

N844MH has the highest average delay.


```r
flights %>%
  group_by(tailnum) %>%
  filter(arr_delay > 0) %>%
  count(tailnum) %>%
  arrange(desc(n))
```

```
## # A tibble: 3,874 × 2
##    tailnum     n
##      <chr> <int>
## 1   N725MQ   215
## 2   N228JB   192
## 3   N258JB   191
## 4   N713MQ   185
## 5   N711MQ   184
## 6   N723MQ   180
## 7   N531MQ   174
## 8   N190JB   173
## 9   N353JB   173
## 10  N534MQ   172
## # ... with 3,864 more rows
```

N725MQ has the most delayed flights.


```r
flights %>%
  group_by(tailnum) %>%
  filter(arr_delay > 60) %>%
  count(tailnum) %>%
  arrange(desc(n))
```

```
## # A tibble: 3,371 × 2
##    tailnum     n
##      <chr> <int>
## 1   N10575    50
## 2   N15910    48
## 3   N15980    48
## 4   N16919    48
## 5   N228JB    46
## 6   N192JB    45
## 7   N258JB    45
## 8   N324JB    44
## 9   N13958    43
## 10  N14573    43
## # ... with 3,361 more rows
```
…
It looks like late night flights are most likely to be delayed, while early morning flights tend to leave slightly early.

**4. For each destination, compute the total minutes of delay. For each, flight, compute the proportion of the total delay for its destination.**


```r
not_cancelled %>%
  group_by(dest) %>%
  summarise(total_delay = sum(arr_delay)) %>%
  arrange(desc(total_delay))
```

```
## # A tibble: 104 × 2
##     dest total_delay
##    <chr>       <dbl>
## 1    ATL      190260
## 2    CLT      100645
## 3    ORD       97352
## 4    FLL       96153
## 5    DCA       82609
## 6    RDU       78107
## 7    MCO       76185
## 8    IAD       74631
## 9    BNA       71867
## 10   DEN       61700
## # ... with 94 more rows
```

```r
not_cancelled %>%
  group_by(dest) %>%
  mutate(prop_delay = arr_delay / sum(arr_delay))
```

```
## Source: local data frame [327,346 x 20]
## Groups: dest [104]
## 
##     year month   day dep_time sched_dep_time dep_delay arr_time
##    <int> <int> <int>    <int>          <int>     <dbl>    <int>
## 1   2013     1     1      517            515         2      830
## 2   2013     1     1      533            529         4      850
## 3   2013     1     1      542            540         2      923
## 4   2013     1     1      544            545        -1     1004
## 5   2013     1     1      554            600        -6      812
## 6   2013     1     1      554            558        -4      740
## 7   2013     1     1      555            600        -5      913
## 8   2013     1     1      557            600        -3      709
## 9   2013     1     1      557            600        -3      838
## 10  2013     1     1      558            600        -2      753
## # ... with 327,336 more rows, and 13 more variables: sched_arr_time <int>,
## #   arr_delay <dbl>, carrier <chr>, flight <int>, tailnum <chr>,
## #   origin <chr>, dest <chr>, air_time <dbl>, distance <dbl>, hour <dbl>,
## #   minute <dbl>, time_hour <dttm>, prop_delay <dbl>
```
…
